<?xml version="1.0" encoding="utf-8"?>
<!-- Generator: Adobe Illustrator 15.1.0, SVG Export Plug-In . SVG Version: 6.00 Build 0)  -->
<!DOCTYPE svg PUBLIC "-//W3C//DTD SVG 1.1//EN" "http://www.w3.org/Graphics/SVG/1.1/DTD/svg11.dtd">
<svg version="1.1" id="Layer_1" xmlns="http://www.w3.org/2000/svg" xmlns:xlink="http://www.w3.org/1999/xlink" x="0px" y="0px"
	 width="329px" height="301px" viewBox="0 0 329 301" enable-background="new 0 0 329 301" xml:space="preserve">
<g>
	<g>
		<path fill-rule="evenodd" clip-rule="evenodd" fill="#FFFFFF" d="M91.545,0.263c33.41-2.02,32.871,48.516,1.998,48.994
			C65.426,49.692,59.9,3.426,91.545,0.263z"/>
		<path fill-rule="evenodd" clip-rule="evenodd" fill="#FFFFFF" d="M225.527,1.263c12.406-0.837,21.443,6.95,23.996,14.998
			c10.092,31.803-37.666,43.891-45.994,16.998C197.863,14.958,209.461,2.346,225.527,1.263z"/>
		<path fill-rule="evenodd" clip-rule="evenodd" fill="#FFFFFF" d="M158.535,116.248c7.354-15.31,9.26-36.069,18.998-48.993
			c4.787-2.602,9.188-8.654,17.998-10c15.148-2.311,55.785-2.663,70.99,0c8.621,1.511,13.889,8.613,17.998,10
			c13.131,23.531,18.572,54.752,26.998,82.988c2.357,18.741-13.393,18.741-16.998,10c-6.256-16.113-10.676-36.967-15.998-55.994
			c-1.408-5.033-2.385-15.288-11-12.998c-5.5,6.263-2.998,15.917-2.998,23.997c0,41.724-0.002,88.704,0,131.983
			c0,17.453,2.701,35.006-4,48.994c-29.508,17.156-23.998-27.529-23.998-57.992c0-25.184,0.775-47.533-1-62.992
			c-2.666,0-5.332,0-7.998,0c-3.932,6.528-2,18.83-2,31.996c0,10.801,0,22.827,0,34.995c0,22.823,5.158,56.587-12.998,57.993
			c-6.473,0.502-9.467-3.625-13.998-7c-3.645-63.828,2.303-138.184-3-201.975c-10.465-2.857-10.135,9.523-11.998,15.998
			c-1.889,6.555-5.053,14.158-7,20.998c-3.537,12.426-4.545,36.969-17.998,36.995c-12.828,0.024-15.553-25.036-18.996-36.995
			c-2.068-7.176-4.031-15.24-6-21.998c-1.752-6.014-2.148-17.354-11.998-14.998c-2.096,8.991,1.742,18.555,3.998,27.996
			c6.604,27.639,14.672,58.622,20.998,86.99c-7.666,0-15.332,0-22.996,0c-1.795,15.29-1,33.427-1,52.992
			c0,16.061,4.859,40.996-12,40.996c-16.08,0-10.998-26.604-10.998-42.995c0-8.921,0-18.362,0-26.997c0-8.914,2.188-19.199-3-23.996
			c-2.332,0-4.666,0-6.998,0c-9.637,15.99,10.561,93.146-12.998,93.988c-17.225,0.615-13-24.316-13-39.996
			c0-19.834,0-35.98,0-52.992c-5.801-2.199-15.564-0.433-22.996-1c5.275-36.733,20.9-77.074,24.996-114.986
			c-10.873-3.096-10.297,9.117-11.998,14.998c-1.9,6.576-4.264,13.984-6,19.998c-4.084,14.156-8.007,32.487-14.998,37.995
			c-4.426,4.242-18.843,2.326-12.509-15.341c16.458-38.042,8.331-85.876,45.505-91.646c24.482-3.799,63.41-1.809,74.99,10.999
			C149.191,81.598,151.514,101.274,158.535,116.248z"/>
	</g>
	<path fill="#FFFFFF" d="M323.896,300.734c-2.762,0-5-2.238-5-5V179.713c0-3.143-0.795-5.656-2.3-7.27
		c-1.147-1.23-2.71-1.909-4.4-1.909c-3.445,0-7.154,2.859-7.154,9.138c0,2.762-2.238,5-5,5s-5-2.238-5-5
		c0-12.43,8.838-19.138,17.154-19.138c4.494,0,8.654,1.808,11.715,5.089c2.274,2.439,4.985,6.864,4.985,14.09v116.021
		C328.896,298.496,326.658,300.734,323.896,300.734z"/>
	<path fill="#FFFFFF" d="M5.104,300.797c-2.762,0-5-2.238-5-5V179.775c0-7.225,2.709-11.648,4.98-14.088
		c3.059-3.283,7.217-5.091,11.709-5.091c8.311,0,17.144,6.708,17.144,19.138c0,2.762-2.238,5-5,5s-5-2.238-5-5
		c0-6.278-3.703-9.138-7.144-9.138c-3.086,0-6.689,2.404-6.689,9.179v116.021C10.104,298.559,7.866,300.797,5.104,300.797z"/>
</g>
</svg>
